C:\Users\sorin\Desktop\CTI code\col\tema_3\src\main\java\connection\ConnectionFactory.java
C:\Users\sorin\Desktop\CTI code\col\tema_3\src\main\java\presentation\CustomerReport.java
C:\Users\sorin\Desktop\CTI code\col\tema_3\src\main\java\business_logic\InsertDAO.java
C:\Users\sorin\Desktop\CTI code\col\tema_3\src\main\java\presentation\ProductReport.java
C:\Users\sorin\Desktop\CTI code\col\tema_3\src\main\java\business_logic\AbstractDAO.java
C:\Users\sorin\Desktop\CTI code\col\tema_3\src\main\java\model\Orders.java
C:\Users\sorin\Desktop\CTI code\col\tema_3\src\main\java\data_access\ProductDAO.java
C:\Users\sorin\Desktop\CTI code\col\tema_3\src\main\java\presentation\OrderReport.java
C:\Users\sorin\Desktop\CTI code\col\tema_3\src\main\java\data_access\CustomerDAO.java
C:\Users\sorin\Desktop\CTI code\col\tema_3\src\main\java\data_access\OrdersDAO.java
C:\Users\sorin\Desktop\CTI code\col\tema_3\src\main\java\model\Product.java
C:\Users\sorin\Desktop\CTI code\col\tema_3\src\main\java\business_logic\DeleteDAO.java
C:\Users\sorin\Desktop\CTI code\col\tema_3\src\main\java\start\Start.java
C:\Users\sorin\Desktop\CTI code\col\tema_3\src\main\java\business_logic\UpdateDAO.java
C:\Users\sorin\Desktop\CTI code\col\tema_3\src\main\java\presentation\ReadFile.java
C:\Users\sorin\Desktop\CTI code\col\tema_3\src\main\java\model\Customer.java
